^C:\SRC\CG2018\LECTURE6\LECTURE 6 - 5 - TEXTURE\PROGRAM1\DEBUG\GLSL.OBJ|C:\SRC\CG2018\LECTURE6\LECTURE 6 - 5 - TEXTURE\PROGRAM1\DEBUG\MAIN.OBJ|C:\SRC\CG2018\LECTURE6\LECTURE 6 - 5 - TEXTURE\PROGRAM1\DEBUG\OBJLOADER.OBJ|C:\SRC\CG2018\LECTURE6\LECTURE 6 - 5 - TEXTURE\PROGRAM1\DEBUG\TEXTURE.OBJ
/OUT:"C:\SRC\CG2018\LECTURE6\LECTURE 6 - 5 - TEXTURE\DEBUG\PROGRAM1.EXE" /INCREMENTAL /NOLOGO /LIBPATH:"D:\OWNCLOUD\SHARE\HI\CG\LECTURE 3 CG\PROGRAMS\FREEGLUT-MSVC-3.0.0-2.MP\FREEGLUT\LIB" /LIBPATH:"D:\OWNCLOUD\SHARE\HI\CG\LECTURE 3 CG\PROGRAMS\GLEW-1.13.0-WIN32\GLEW-1.13.0\LIB\RELEASE\WIN32" FREEGLUT.LIB GLEW32.LIB KERNEL32.LIB USER32.LIB GDI32.LIB WINSPOOL.LIB COMDLG32.LIB ADVAPI32.LIB SHELL32.LIB OLE32.LIB OLEAUT32.LIB UUID.LIB ODBC32.LIB ODBCCP32.LIB /MANIFEST /MANIFESTUAC:"level='asInvoker' uiAccess='false'" /manifest:embed /DEBUG:FASTLINK /PDB:"C:\SRC\CG2018\LECTURE6\LECTURE 6 - 5 - TEXTURE\DEBUG\PROGRAM1.PDB" /SUBSYSTEM:CONSOLE /TLBID:1 /DYNAMICBASE /NXCOMPAT /IMPLIB:"C:\SRC\CG2018\LECTURE6\LECTURE 6 - 5 - TEXTURE\DEBUG\PROGRAM1.LIB" /MACHINE:X86 DEBUG\GLSL.OBJDEBUG\MAIN.OBJDEBUG\OBJLOADER.OBJDEBUG\TEXTURE.OBJ
^C:\SRC\CG2018\LECTURE6\LECTURE 6 - 5 - MORE OBJECTS\PROGRAM1\DEBUG\GLSL.OBJ|C:\SRC\CG2018\LECTURE6\LECTURE 6 - 5 - MORE OBJECTS\PROGRAM1\DEBUG\MAIN.OBJ|C:\SRC\CG2018\LECTURE6\LECTURE 6 - 5 - MORE OBJECTS\PROGRAM1\DEBUG\OBJLOADER.OBJ|C:\SRC\CG2018\LECTURE6\LECTURE 6 - 5 - MORE OBJECTS\PROGRAM1\DEBUG\TEXTURE.OBJ
/OUT:"C:\SRC\CG2018\LECTURE6\LECTURE 6 - 5 - MORE OBJECTS\DEBUG\PROGRAM1.EXE" /INCREMENTAL /NOLOGO /LIBPATH:"D:\OWNCLOUD\SHARE\HI\CG\LECTURE 3 CG\PROGRAMS\FREEGLUT-MSVC-3.0.0-2.MP\FREEGLUT\LIB" /LIBPATH:"D:\OWNCLOUD\SHARE\HI\CG\LECTURE 3 CG\PROGRAMS\GLEW-1.13.0-WIN32\GLEW-1.13.0\LIB\RELEASE\WIN32" FREEGLUT.LIB GLEW32.LIB KERNEL32.LIB USER32.LIB GDI32.LIB WINSPOOL.LIB COMDLG32.LIB ADVAPI32.LIB SHELL32.LIB OLE32.LIB OLEAUT32.LIB UUID.LIB ODBC32.LIB ODBCCP32.LIB /MANIFEST /MANIFESTUAC:"level='asInvoker' uiAccess='false'" /manifest:embed /DEBUG:FASTLINK /PDB:"C:\SRC\CG2018\LECTURE6\LECTURE 6 - 5 - MORE OBJECTS\DEBUG\PROGRAM1.PDB" /SUBSYSTEM:CONSOLE /TLBID:1 /DYNAMICBASE /NXCOMPAT /IMPLIB:"C:\SRC\CG2018\LECTURE6\LECTURE 6 - 5 - MORE OBJECTS\DEBUG\PROGRAM1.LIB" /MACHINE:X86 DEBUG\GLSL.OBJDEBUG\MAIN.OBJDEBUG\OBJLOADER.OBJDEBUG\TEXTURE.OBJ
^C:\SRC\CG2018\LECTURE6 - GOED\LECTURE 6 - 6 - MORE OBJECTS\PROGRAM1\DEBUG\GLSL.OBJ|C:\SRC\CG2018\LECTURE6 - GOED\LECTURE 6 - 6 - MORE OBJECTS\PROGRAM1\DEBUG\MAIN.OBJ|C:\SRC\CG2018\LECTURE6 - GOED\LECTURE 6 - 6 - MORE OBJECTS\PROGRAM1\DEBUG\OBJLOADER.OBJ|C:\SRC\CG2018\LECTURE6 - GOED\LECTURE 6 - 6 - MORE OBJECTS\PROGRAM1\DEBUG\TEXTURE.OBJ
/OUT:"C:\SRC\CG2018\LECTURE6 - GOED\LECTURE 6 - 6 - MORE OBJECTS\DEBUG\PROGRAM1.EXE" /INCREMENTAL /NOLOGO /LIBPATH:"D:\OWNCLOUD\SHARE\HI\CG\LECTURE 3 CG\PROGRAMS\FREEGLUT-MSVC-3.0.0-2.MP\FREEGLUT\LIB" /LIBPATH:"D:\OWNCLOUD\SHARE\HI\CG\LECTURE 3 CG\PROGRAMS\GLEW-1.13.0-WIN32\GLEW-1.13.0\LIB\RELEASE\WIN32" FREEGLUT.LIB GLEW32.LIB KERNEL32.LIB USER32.LIB GDI32.LIB WINSPOOL.LIB COMDLG32.LIB ADVAPI32.LIB SHELL32.LIB OLE32.LIB OLEAUT32.LIB UUID.LIB ODBC32.LIB ODBCCP32.LIB /MANIFEST /MANIFESTUAC:"level='asInvoker' uiAccess='false'" /manifest:embed /DEBUG:FASTLINK /PDB:"C:\SRC\CG2018\LECTURE6 - GOED\LECTURE 6 - 6 - MORE OBJECTS\DEBUG\PROGRAM1.PDB" /SUBSYSTEM:CONSOLE /TLBID:1 /DYNAMICBASE /NXCOMPAT /IMPLIB:"C:\SRC\CG2018\LECTURE6 - GOED\LECTURE 6 - 6 - MORE OBJECTS\DEBUG\PROGRAM1.LIB" /MACHINE:X86 DEBUG\GLSL.OBJDEBUG\MAIN.OBJDEBUG\OBJLOADER.OBJDEBUG\TEXTURE.OBJ
^C:\SRC\CG2018\LECTURE6 - GOED\LECTURE 6 - 7 - DIFFERENT SHADING\PROGRAM1\DEBUG\GLSL.OBJ|C:\SRC\CG2018\LECTURE6 - GOED\LECTURE 6 - 7 - DIFFERENT SHADING\PROGRAM1\DEBUG\MAIN.OBJ|C:\SRC\CG2018\LECTURE6 - GOED\LECTURE 6 - 7 - DIFFERENT SHADING\PROGRAM1\DEBUG\OBJLOADER.OBJ|C:\SRC\CG2018\LECTURE6 - GOED\LECTURE 6 - 7 - DIFFERENT SHADING\PROGRAM1\DEBUG\TEXTURE.OBJ
/OUT:"C:\SRC\CG2018\LECTURE6 - GOED\LECTURE 6 - 7 - DIFFERENT SHADING\DEBUG\PROGRAM1.EXE" /INCREMENTAL /NOLOGO /LIBPATH:"D:\OWNCLOUD\SHARE\HI\CG\LECTURE 3 CG\PROGRAMS\FREEGLUT-MSVC-3.0.0-2.MP\FREEGLUT\LIB" /LIBPATH:"D:\OWNCLOUD\SHARE\HI\CG\LECTURE 3 CG\PROGRAMS\GLEW-1.13.0-WIN32\GLEW-1.13.0\LIB\RELEASE\WIN32" FREEGLUT.LIB GLEW32.LIB KERNEL32.LIB USER32.LIB GDI32.LIB WINSPOOL.LIB COMDLG32.LIB ADVAPI32.LIB SHELL32.LIB OLE32.LIB OLEAUT32.LIB UUID.LIB ODBC32.LIB ODBCCP32.LIB /MANIFEST /MANIFESTUAC:"level='asInvoker' uiAccess='false'" /manifest:embed /DEBUG:FASTLINK /PDB:"C:\SRC\CG2018\LECTURE6 - GOED\LECTURE 6 - 7 - DIFFERENT SHADING\DEBUG\PROGRAM1.PDB" /SUBSYSTEM:CONSOLE /TLBID:1 /DYNAMICBASE /NXCOMPAT /IMPLIB:"C:\SRC\CG2018\LECTURE6 - GOED\LECTURE 6 - 7 - DIFFERENT SHADING\DEBUG\PROGRAM1.LIB" /MACHINE:X86 DEBUG\GLSL.OBJDEBUG\MAIN.OBJDEBUG\OBJLOADER.OBJDEBUG\TEXTURE.OBJ
^D:\PROJECTS\LECTURE 6 - 7 - MORE OBJECTS - 2 - TWO OBJECTS WITH TEXTURES\PROGRAM1\DEBUG\CAMERA.OBJ|D:\PROJECTS\LECTURE 6 - 7 - MORE OBJECTS - 2 - TWO OBJECTS WITH TEXTURES\PROGRAM1\DEBUG\GLSL.OBJ|D:\PROJECTS\LECTURE 6 - 7 - MORE OBJECTS - 2 - TWO OBJECTS WITH TEXTURES\PROGRAM1\DEBUG\MAIN.OBJ|D:\PROJECTS\LECTURE 6 - 7 - MORE OBJECTS - 2 - TWO OBJECTS WITH TEXTURES\PROGRAM1\DEBUG\OBJLOADER.OBJ|D:\PROJECTS\LECTURE 6 - 7 - MORE OBJECTS - 2 - TWO OBJECTS WITH TEXTURES\PROGRAM1\DEBUG\TEXTURE.OBJ
/OUT:"D:\PROJECTS\LECTURE 6 - 7 - MORE OBJECTS - 2 - TWO OBJECTS WITH TEXTURES\DEBUG\PROGRAM1.EXE" /INCREMENTAL /NOLOGO /LIBPATH:"D:\OWNCLOUD\SHARE\HI\CG\LECTURE 3 CG\PROGRAMS\FREEGLUT-MSVC-3.0.0-2.MP\FREEGLUT\LIB" /LIBPATH:"D:\OWNCLOUD\SHARE\HI\CG\LECTURE 3 CG\PROGRAMS\GLEW-1.13.0-WIN32\GLEW-1.13.0\LIB\RELEASE\WIN32" FREEGLUT.LIB GLEW32.LIB KERNEL32.LIB USER32.LIB GDI32.LIB WINSPOOL.LIB COMDLG32.LIB ADVAPI32.LIB SHELL32.LIB OLE32.LIB OLEAUT32.LIB UUID.LIB ODBC32.LIB ODBCCP32.LIB /MANIFEST /MANIFESTUAC:"level='asInvoker' uiAccess='false'" /manifest:embed /DEBUG:FASTLINK /PDB:"D:\PROJECTS\LECTURE 6 - 7 - MORE OBJECTS - 2 - TWO OBJECTS WITH TEXTURES\DEBUG\PROGRAM1.PDB" /SUBSYSTEM:CONSOLE /TLBID:1 /DYNAMICBASE /NXCOMPAT /IMPLIB:"D:\PROJECTS\LECTURE 6 - 7 - MORE OBJECTS - 2 - TWO OBJECTS WITH TEXTURES\DEBUG\PROGRAM1.LIB" /MACHINE:X86 DEBUG\CAMERA.OBJDEBUG\GLSL.OBJDEBUG\MAIN.OBJDEBUG\OBJLOADER.OBJDEBUG\TEXTURE.OBJ
^D:\PROJECTS\OPENGL ASSIGNMENT V2\PROGRAM1\DEBUG\CAMERA.OBJ|D:\PROJECTS\OPENGL ASSIGNMENT V2\PROGRAM1\DEBUG\GLSL.OBJ|D:\PROJECTS\OPENGL ASSIGNMENT V2\PROGRAM1\DEBUG\MAIN.OBJ|D:\PROJECTS\OPENGL ASSIGNMENT V2\PROGRAM1\DEBUG\OBJLOADER.OBJ|D:\PROJECTS\OPENGL ASSIGNMENT V2\PROGRAM1\DEBUG\TEXTURE.OBJ
/OUT:"D:\PROJECTS\OPENGL ASSIGNMENT V2\DEBUG\PROGRAM1.EXE" /INCREMENTAL /NOLOGO /LIBPATH:"D:\OWNCLOUD\SHARE\HI\CG\LECTURE 3 CG\PROGRAMS\FREEGLUT-MSVC-3.0.0-2.MP\FREEGLUT\LIB" /LIBPATH:"D:\OWNCLOUD\SHARE\HI\CG\LECTURE 3 CG\PROGRAMS\GLEW-1.13.0-WIN32\GLEW-1.13.0\LIB\RELEASE\WIN32" FREEGLUT.LIB GLEW32.LIB KERNEL32.LIB USER32.LIB GDI32.LIB WINSPOOL.LIB COMDLG32.LIB ADVAPI32.LIB SHELL32.LIB OLE32.LIB OLEAUT32.LIB UUID.LIB ODBC32.LIB ODBCCP32.LIB /MANIFEST /MANIFESTUAC:"level='asInvoker' uiAccess='false'" /manifest:embed /DEBUG:FASTLINK /PDB:"D:\PROJECTS\OPENGL ASSIGNMENT V2\DEBUG\PROGRAM1.PDB" /SUBSYSTEM:CONSOLE /TLBID:1 /DYNAMICBASE /NXCOMPAT /IMPLIB:"D:\PROJECTS\OPENGL ASSIGNMENT V2\DEBUG\PROGRAM1.LIB" /MACHINE:X86 DEBUG\CAMERA.OBJDEBUG\GLSL.OBJDEBUG\MAIN.OBJDEBUG\OBJLOADER.OBJDEBUG\TEXTURE.OBJ
